﻿[
  {
    "Content": "",
    "Date": "15.09.2016",
    "Id": "10",
    "Title": "Устав ТСЖ Вавилон",
    "ImagePath": ""
  },
  {
    "Content": "",
    "Date": "05.09.2016",
    "Id": "9",
    "Title": "Свидетельсво ЕГРЮЛ",
    "ImagePath": "/DataModels/DataSourceFile/Egrn.PNG"

  },
  {
    "Content": "",
    "Date": "25.08.2016",
    "Id": "8",
    "Title": "Решение заочного голосовадния членов ТСЖ Вавилон",
    "ImagePath": ""
  },
  {
    "Content": "",
    "Date": "10.08.2016",
    "Id": "7",
    "Title": "Сотрудники ТСЖ Вавилон",
    "ImagePath": "/DataModels/DataSourceFile/Low.png"
  },
  {
    "Content": "",
    "Date": "26.07.2016",
    "Id": "6",
    "Title": "Режим работы ТСЖ Вавилон",
    "ImagePath": ""
  }
]